CDA R notebook
…
Goodness of Fit

For Hosmer-Lemeshow chi-squared test to check the goodness of fit of a logistic regression model, see the bottom of this web-page: https://data.princeton.edu/wws509/r/c3s8. Small p-value indiactes that there are evidences of lack of fit.

(06/11/20) ROC curve, complete and quasi-complete separations

ROC curve

We will use the Default dataset available in ISLR package.

library(ISLR)
library(tibble)
as_tibble(Default)

## # A tibble: 10,000 x 4
##    default student balance income
##    <fct>   <fct>     <dbl>  <dbl>
##  1 No      No         730. 44362.
##  2 No      Yes        817. 12106.
##  3 No      No        1074. 31767.
##  4 No      No         529. 35704.
##  5 No      No         786. 38463.
##  6 No      Yes        920.  7492.
##  7 No      No         826. 24905.
##  8 No      Yes        809. 17600.
##  9 No      No        1161. 37469.
## 10 No      No           0  29275.
## #  with 9,990 more rows
…
##             logitlink(P[Y>=2]) logitlink(P[Y>=3])
## (Intercept)          -9.676093         -10.581725
## lexptime              2.596807           2.596807

Adjacent category model

To illustrate this, we use a data set from the 2006 General Social Survey that shows the relationship in the United States between opinion about funding stem cell research and the fundamentalism/liberalism of ones religious beliefs, stratified by gender.

First we store the counts in stemcell data in another form which will be suitable to us.

library(brglm2)
library(tibble)
as_tibble(stemcell)

## # A tibble: 24 x 4
##    frequency research   gender religion      
##        <dbl> <ord>      <fct>  <ord>         
##  1        34 definitely female fundamentalist
##  2        41 definitely female moderate      
##  3        58 definitely female liberal       
##  4        21 definitely male   fundamentalist
##  5        30 definitely male   moderate      
##  6        64 definitely male   liberal       
##  7        67 probably   female fundamentalist
##  8        83 probably   female moderate      
##  9        63 probably   female liberal       
## 10        52 probably   male   fundamentalist
## #  with 14 more rows
…
